<?xml version="1.0" ?>
<!DOCTYPE svg PUBLIC '-//W3C//DTD SVG 1.1//EN' 'http://www.w3.org/Graphics/SVG/1.1/DTD/svg11.dtd'>
<svg version="1.1" class="tarsier" xmlns="http://www.w3.org/2000/svg" xmlns:xlink="http://www.w3.org/1999/xlink" x="0px" y="0px" width="200px" viewBox="0 0 270 335" xml:space="preserve">
    <g transform="translate(0.000000,338.000000) scale(0.06,-0.06)" fill="#6b91ab" fill-opacity="1.0" stroke-dasharray="13100" stroke-dashoffset="0" stroke-opacity="1" stroke-width="50" viewbox="0 0 64 64">
        <path class="head" d="M2050 5603 c-257 -26 -531 -96 -748 -192 -292 -129 -508 -290 -732 -548 l-45 -52 -95 31 c-87 29 -106 31 -237 32 -78 1 -145 -2 -149 -7 -17 -17 72 -455 110 -542 8 -16 19 -48 26 -70 7 -22 30 -80 51 -129 35 -80 39 -98 39 -172 0 -345 155 -663 420 -863 336 -253 775 -290 1148 -96 l103 54 53 -34 c68 -44 109 -60 199 -80 61 -13 85 -14 135 -5 86 15 167 45 224 81 l49 32 102 -51 c56 -28 131 -60 167 -71 607 -191 1250 186 1375 806 8 43 19 137 24 208 8 125 11 135 59 252 52 124 110 317 136 453 24 123 38 221 33 226 -2 3 -49 7 -104 11 -109 6 -194 -5 -308 -41 -40 -13 -77 -21 -82 -17 -5 3 -40 44 -78 90 -291 352 -803 612 -1345 682 -133 17 -417 24 -530 12z m-602 -823 c345 -44 636 -300 722 -635 101 -397 -94 -801 -473 -981 -124 -58 -182 -69 -362 -69 -153 1 -164 2 -255 33 -242 81 -445 271 -535 502 -61 156 -72 380 -26 534 109 364 429 611 811 625 20 0 73 -4 118 -9z m1961 -21 c155 -40 297 -124 413 -247 357 -378 285 -989 -152 -1281 -157 -105 -267 -136 -480 -136 -134 0 -165 3 -229 23 -354 111 -592 407 -617 765 -30 437 297 836 736 897 89 12 236 3 329 -21z m-1211 -1404 c28 -14 60 -25 71 -25 12 0 44 11 71 25 27 14 54 25 60 25 17 0 11 -43 -10 -77 -24 -40 -48 -42 -89 -7 l-31 26 -35 -27 c-20 -14 -43 -25 -53 -23 -20 4 -66 83 -57 98 9 15 18 13 73 -15z"></path>
        <path class="body" d="M2162 2855 c-317 -89 -561 -436 -637 -905 -8 -52 -15 -132 -15 -177 l0 -83 325 0 c179 0 325 -3 325 -7 0 -5 -26 -26 -57 -47 -193 -135 -337 -343 -399 -581 -37 -139 -39 -339 -6 -465 39 -145 92 -241 185 -335 129 -129 265 -184 458 -185 179 0 320 58 444 184 102 104 135 180 143 326 9 189 -63 340 -206 431 -125 79 -310 92 -434 31 -121 -59 -189 -166 -196 -304 -4 -69 -1 -84 25 -140 17 -35 42 -74 56 -88 62 -62 187 -95 263 -70 52 16 82 46 96 91 9 32 8 42 -6 64 -20 30 -35 31 -69 5 -69 -54 -177 12 -177 109 0 144 185 229 331 153 96 -49 145 -150 136 -274 -6 -87 -43 -163 -106 -220 -181 -163 -448 -147 -621 38 -108 116 -157 258 -147 428 17 304 183 539 493 698 189 97 442 158 655 158 l90 0 -5 43 c-3 23 -8 75 -11 116 -22 257 -124 546 -259 731 -94 129 -191 206 -325 257 -84 33 -264 42 -349 18z"></path>
        <path class="left-eye" d="M1243 4221 c-95 -32 -169 -111 -194 -206 -18 -65 -6 -164 27 -224 97 -180 353 -211 489 -59 56 61 79 120 79 203 -1 210 -203 355 -401 286z" stroke-width='100'></path>
        <path class="right-eye" d="M3125 4231 c-93 -24 -164 -82 -206 -168 -33 -66 -33 -176 -1 -249 87 -194 348 -240 495 -88 110 113 115 291 13 410 -66 77 -204 121 -301 95z" stroke-width='150'></path>
    </g>
</svg>
